0, 7, 1, 3, 1, 3, -2, 1, , value = 0
-1, 7, 1, 3, 1, 2, -2, 1, , value = 0
-1, 6, 0, 3, 1, 2, -2, 1, , value = 0
0, 5, 1, 3, 0, 2, -2, 1, , value = 0
0, 5, 1, 3, 1, 2, -2, 1, , value = 0
0, 4, 1, 3, 1, 2, -2, 1, , value = -1
0, 4, 0, 3, 1, 2, -2, 1, , value = -1
0, 3, 0, 3, 1, 2, -2, 1, , value = -1
-1, 3, 1, 3, 1, 3, -2, 1, , value = -1
-1, 3, 1, 3, 1, 3, -2, 1, , value = -1
-1, 3, 0, 3, 1, 3, -2, 0, , value = -1
-1, 3, 0, 3, 0, 3, -3, 1, , value = -1
-1, 2, 0, 3, 1, 2, 6, 1, , value = 0
-1, 2, 1, 3, 1, 3, 5, 0, , value = 0
-1, 2, 1, 3, 1, 3, 4, 0, , value = -1
-1, 1, 1, 3, 1, 3, 4, 0, , value = -1
-1, 1, 1, 3, 1, 3, 3, 0, , value = -1
0, 2, 1, 3, 1, 2, 3, 0, , value = -1
-1, 2, 1, 3, 1, 2, 2, 0, , value = -1
-1, 1, 2, 3, 1, 3, 1, 0, , value = -1
1, 1, 2, 4, 1, 2, 1, 0, , value = -1
2, 1, 1, 4, 1, 2, 1, 0, , value = -1
9, 1, 1, 4, 2, 3, 1, 1, , value = 0
15, 1, 1, 4, 1, 3, 1, 0, , value = 0
19, 2, 1, 4, 2, 3, 0, 1, , value = 3
26, 1, 1, 14, 1, 3, 0, 0, , value = 25
31, 1, 1, 13, 1, 3, 0, 1, , value = 25
37, 1, 1, 11, 2, 3, 0, 1, , value = 11
39, 1, 0, 11, 1, 3, -1, 0, , value = 11
44, 1, 1, 10, 2, 2, -1, 0, , value = 12
47, 2, 0, 9, 2, 3, -1, 1, , value = 11
50, 2, 0, 8, 2, 2, -1, 0, , value = 11
51, 2, 1, 7, 1, 2, -1, 0, , value = 10
54, 3, 1, 7, 1, 2, -1, 0, , value = 11
56, 5, 1, 7, 2, 2, -2, 0, , value = 7
54, 9, 1, 7, 2, 2, -1, 1, , value = 9
52, 16, 1, 6, 3, 2, -2, 1, , value = 11
48, 24, 1, 6, 3, 3, -1, 1, , value = 14
42, 31, 1, 6, 3, 2, -1, 1, , value = 16
36, 39, 1, 5, 3, 3, -1, 1, , value = 10
32, 41, 1, 5, 3, 3, -1, 1, , value = 17
28, 45, 2, 7, 3, 3, -2, 1, , value = 13
26, 46, 3, 7, 3, 2, -2, 1, , value = 20
23, 47, 5, 5, 2, 3, -1, 1, , value = 14
19, 45, 7, 5, 2, 2, -2, 1, , value = 21
17, 42, 13, 6, 2, 2, -2, 1, , value = 25
14, 39, 20, 6, 2, 3, -1, 1, , value = 28
13, 35, 23, 6, 2, 3, -1, 1, , value = 28
11, 31, 29, 5, 2, 3, -1, 1, , value = 29
10, 28, 33, 5, 2, 3, -1, 1, , value = 30
9, 24, 40, 5, 2, 3, -1, 1, , value = 33
7, 21, 44, 5, 2, 3, -2, 1, , value = 34
6, 19, 50, 5, 2, 3, -2, 1, , value = 26
6, 16, 54, 5, 1, 3, -2, 1, , value = 28
4, 15, 53, 6, 2, 3, -2, 1, , value = 37
4, 13, 57, 6, 2, 3, -2, 1, , value = 39
4, 11, 59, 9, 2, 3, -2, 1, , value = 42
3, 10, 56, 14, 1, 3, -1, 1, , value = 32
2, 9, 54, 20, 1, 3, -2, 1, , value = 36
2, 7, 49, 27, 2, 3, -2, 2, , value = 37
1, 6, 45, 33, 1, 3, -2, 1, , value = 39
1, 5, 39, 39, 1, 3, -2, 2, , value = 40
1, 4, 35, 46, 1, 3, -1, 2, , value = 41
1, 4, 30, 47, 2, 3, -1, 2, , value = 53
0, 4, 27, 50, 3, 2, -1, 2, , value = 54
0, 4, 24, 52, 5, 3, -2, 2, , value = 45
1, 3, 21, 52, 8, 3, -2, 2, , value = 46
1, 3, 18, 52, 11, 3, -2, 2, , value = 47
0, 3, 16, 51, 14, 3, -2, 2, , value = 48
0, 3, 14, 49, 17, 3, -1, 2, , value = 48
0, 2, 13, 46, 21, 3, -1, 2, , value = 49
0, 2, 11, 44, 26, 3, -1, 2, , value = 51
0, 2, 9, 41, 30, 3, -1, 2, , value = 52
0, 2, 8, 37, 35, 3, -1, 2, , value = 53
0, 2, 7, 34, 41, 3, -1, 2, , value = 56
0, 1, 7, 30, 46, 3, -1, 2, , value = 58
-1, 2, 6, 27, 51, 3, -1, 2, , value = 60
-1, 1, 6, 24, 56, 3, -2, 2, , value = 62
-2, 1, 5, 21, 58, 3, -1, 2, , value = 61
-1, 2, 5, 19, 59, 4, -1, 2, , value = 61
-1, 1, 4, 17, 57, 6, -1, 2, , value = 61
-1, 1, 4, 16, 56, 8, -2, 2, , value = 62
-1, 2, 3, 15, 56, 12, -2, 2, , value = 66
-1, 2, 3, 13, 55, 16, -2, 2, , value = 68
-1, 1, 3, 12, 52, 20, -2, 2, , value = 69
-2, 1, 3, 11, 48, 23, -2, 2, , value = 68
-2, 1, 3, 10, 42, 29, -2, 2, , value = 68
-1, 1, 2, 9, 37, 33, -2, 2, , value = 88
-1, 2, 2, 8, 33, 35, -1, 3, , value = 85
-1, 2, 2, 8, 30, 39, -1, 2, , value = 88
-1, 2, 1, 7, 26, 43, 0, 2, , value = 88
-1, 2, 2, 7, 23, 46, 2, 2, , value = 88
-1, 1, 2, 6, 21, 46, 4, 2, , value = 85
-1, 2, 2, 6, 18, 46, 7, 2, , value = 93
0, 1, 2, 5, 16, 45, 10, 3, , value = 94
0, 1, 2, 5, 14, 44, 14, 3, , value = 97
0, 1, 2, 5, 12, 42, 19, 3, , value = 100
0, 1, 2, 5, 11, 38, 23, 3, , value = 100
0, 1, 2, 5, 10, 35, 25, 3, , value = 97
0, 1, 2, 5, 9, 32, 30, 3, , value = 100
-1, 1, 2, 5, 8, 30, 37, 3, , value = 83
-1, 1, 2, 4, 7, 27, 41, 4, , value = 105
-1, 0, 2, 4, 7, 24, 44, 5, , value = 89
0, 1, 2, 4, 6, 22, 49, 5, , value = 93
0, 0, 2, 4, 5, 19, 52, 5, , value = 92
0, 1, 2, 4, 5, 17, 55, 5, , value = 94
-1, 0, 3, 4, 5, 16, 56, 6, , value = 96
-1, 0, 3, 4, 4, 14, 58, 7, , value = 120
-1, 0, 2, 4, 4, 13, 58, 9, , value = 95
-1, 0, 2, 4, 3, 11, 58, 11, , value = 96
-1, 0, 2, 4, 3, 11, 57, 13, , value = 97
-2, 0, 2, 4, 3, 10, 55, 16, , value = 98
-1, 0, 2, 4, 3, 9, 52, 20, , value = 99
-2, 0, 2, 4, 3, 8, 49, 24, , value = 100
-1, 0, 2, 4, 3, 8, 44, 29, , value = 101
-1, 0, 1, 4, 2, 7, 41, 34, , value = 104
-2, 0, 2, 4, 2, 6, 37, 39, , value = 105
-2, 0, 2, 4, 2, 6, 34, 43, , value = 107
-2, 1, 1, 4, 2, 5, 31, 43, , value = 131
-1, 1, 1, 4, 2, 5, 28, 48, , value = 106
-1, 1, 1, 4, 2, 5, 25, 51, , value = 106
-1, 1, 1, 4, 2, 5, 22, 56, , value = 110
-1, 1, 1, 4, 2, 5, 19, 59, , value = 111
-1, 0, 2, 4, 2, 4, 17, 60, , value = 133
-1, 0, 2, 4, 2, 4, 15, 62, , value = 134
-1, 2, 2, 4, 2, 4, 13, 65, , value = 136
-1, 2, 1, 3, 2, 4, 11, 67, , value = 137
-1, 1, 2, 4, 2, 4, 9, 65, , value = 129
-1, 1, 2, 4, 2, 3, 8, 67, , value = 132
-1, 1, 2, 4, 2, 3, 8, 69, , value = 136
0, 2, 1, 4, 2, 3, 6, 71, , value = 136
-1, 2, 2, 1, 2, 3, 5, 69, , value = 130
-1, 2, 1, 4, 2, 3, 4, 68, , value = 120
0, 1, 1, 4, 2, 2, 4, 67, , value = 118
0, 1, 1, 4, 2, 2, 3, 65, , value = 114
0, 1, 1, 4, 2, 3, 3, 62, , value = 149
0, 1, 2, 4, 2, 2, 2, 58, , value = 138
0, 1, 1, 4, 2, 2, 1, 52, , value = 122
0, 1, 1, 4, 2, 2, 1, 45, , value = 164
5, 1, 1, 3, 2, 3, 1, 40, , value = 146
4, 1, 1, 3, 2, 3, 0, 35, , value = 124
3, 1, 0, 3, 1, 3, 0, 31, , value = 232
3, 0, 1, 4, 2, 3, 0, 27, , value = 200
3, 0, 1, 4, 1, 2, -1, 24, , value = 176
2, 1, 1, 4, 2, 3, 0, 21, , value = 152
3, 0, 1, 4, 2, 3, -1, 18, , value = 128
2, 0, 1, 3, 2, 3, -1, 16, , value = 112
2, 0, 0, 4, 2, 3, -1, 14, , value = 0
1, 0, 1, 3, 2, 3, -1, 12, , value = 0
1, 0, 1, 4, 2, 3, -1, 11, , value = 0
