-1, 1, 0, 3, 1, 2, -1, 3, , value = -1
-1, 1, 0, 3, 1, 2, -1, 3, , value = -1
-1, 1, 1, 3, 1, 2, 0, 2, , value = -1
-1, 1, 1, 3, 1, 2, 0, 2, , value = -1
-2, 1, 1, 3, 1, 2, 0, 2, , value = -1
-1, 0, 2, 3, 1, 2, 0, 2, , value = -1
-2, 0, 2, 3, 1, 2, 0, 2, , value = -1
-2, 1, 2, 3, 1, 2, 0, 2, , value = -1
-2, 1, 2, 3, 1, 2, 0, 2, , value = -1
-2, 0, 2, 3, 1, 2, 0, 2, , value = -1
-2, 1, 2, 3, 1, 2, 0, 2, , value = -1
-2, 0, 1, 3, 1, 2, -1, 2, , value = -1
-1, 0, 2, 3, 1, 3, 0, 2, , value = -1
-1, 0, 2, 3, 1, 2, -1, 2, , value = -1
-1, 0, 2, 3, 1, 2, -1, 2, , value = -1
-1, 0, 2, 4, 1, 2, -1, 2, , value = -1
-1, -1, 2, 4, 1, 2, -1, 2, , value = -1
-1, -1, 2, 4, 1, 1, -1, 2, , value = -1
-1, 0, 3, 3, 1, 1, -1, 2, , value = -1
-1, 0, 2, 4, 0, 1, -1, 2, , value = -1
0, 0, 2, 3, 0, 0, -1, 1, , value = -1
1, 0, 3, 5, 0, 1, -1, 2, , value = 0
3, 0, 3, 5, 0, 0, -1, 2, , value = 0
14, 0, 3, 5, 0, 0, -1, 2, , value = 18
30, 0, 3, 5, 0, 0, 0, 2, , value = 9
49, 0, 2, 5, 0, 0, 0, 2, , value = 7
61, 0, 2, 5, 0, 0, -1, 2, , value = 4
85, 1, 2, 4, 0, 0, 0, 2, , value = 1
99, 1, 2, 4, 0, 0, -1, 2, , value = 0
101, 1, 2, 4, 0, 0, 0, 2, , value = 0
110, 1, 2, 4, 0, 1, -1, 2, , value = 2
121, 1, 2, 4, 0, 1, 0, 2, , value = 1
121, 0, 3, 4, 0, 1, 0, 2, , value = 1
130, 1, 2, 4, 0, 0, -1, 2, , value = 0
140, 1, 12, 4, 0, 1, -1, 2, , value = 3
160, 1, 11, 5, 0, 1, -1, 2, , value = 3
161, 3, 10, 4, 0, 1, -1, 2, , value = 3
155, 7, 9, 6, 0, 1, 0, 2, , value = 4
155, 12, 7, 5, 0, 1, 0, 2, , value = 4
146, 17, 7, 5, 0, 0, 0, 2, , value = 6
141, 27, 6, 5, 0, 0, 0, 3, , value = 5
134, 36, 5, 5, -1, 0, -1, 3, , value = 5
128, 42, 5, 4, -1, 1, -1, 2, , value = 6
118, 50, 5, 5, 0, 1, 0, 2, , value = 7
110, 57, 4, 4, 0, 0, -1, 3, , value = 6
101, 73, 5, 6, 0, 0, 0, 3, , value = 10
91, 83, 5, 6, 0, 0, -1, 3, , value = 10
84, 93, 4, 7, 0, 1, 0, 3, , value = 11
76, 102, 4, 7, 0, 0, 0, 3, , value = 12
67, 108, 4, 7, 0, 1, -1, 3, , value = 12
59, 118, 5, 7, 0, 1, -1, 3, , value = 14
52, 136, 5, 6, 0, 0, 0, 3, , value = 14
46, 153, 7, 6, 0, 0, 0, 4, , value = 14
40, 151, 8, 6, 0, 1, 0, 4, , value = 16
35, 148, 15, 6, 0, 0, 0, 4, , value = 17
31, 144, 21, 6, -1, 1, 0, 4, , value = 17
27, 137, 33, 6, -1, 1, 0, 4, , value = 19
24, 128, 42, 5, 0, 1, 0, 4, , value = 19
21, 119, 47, 8, -1, 0, 0, 4, , value = 20
19, 110, 61, 8, 0, 0, 0, 4, , value = 21
15, 99, 66, 7, 0, 0, -1, 4, , value = 23
13, 88, 61, 7, 0, 0, -1, 3, , value = 24
12, 78, 80, 7, 0, 0, 0, 4, , value = 23
10, 69, 91, 7, -1, 0, 0, 3, , value = 24
9, 61, 104, 7, -1, 0, 0, 3, , value = 26
7, 55, 102, 7, -1, 0, 0, 3, , value = 29
6, 48, 114, 8, 0, 0, -1, 4, , value = 27
6, 43, 126, 9, 0, 0, 0, 4, , value = 30
5, 37, 126, 12, 0, 0, 0, 4, , value = 29
4, 33, 129, 17, 0, 1, 0, 4, , value = 31
5, 29, 132, 22, -1, 0, -1, 4, , value = 33
4, 26, 130, 30, 0, 0, 0, 4, , value = 35
3, 23, 124, 44, 0, 0, 0, 4, , value = 38
3, 20, 115, 58, 0, 1, 0, 5, , value = 38
3, 18, 104, 84, 0, 1, 0, 5, , value = 39
2, 16, 95, 94, 0, 1, 0, 5, , value = 40
2, 14, 86, 106, 0, 0, 0, 5, , value = 41
2, 12, 77, 118, 0, 0, 0, 5, , value = 43
1, 11, 68, 125, 1, 1, 1, 5, , value = 42
1, 9, 60, 141, 1, 0, 1, 5, , value = 45
1, 8, 53, 153, 3, 0, 0, 5, , value = 47
1, 8, 47, 166, 4, 0, 0, 5, , value = 45
1, 7, 42, 160, 9, 1, 0, 6, , value = 46
1, 6, 37, 158, 14, 1, 0, 6, , value = 51
1, 5, 32, 150, 24, 1, 0, 6, , value = 51
0, 5, 29, 141, 29, 1, 0, 6, , value = 49
0, 4, 26, 127, 46, 1, 0, 5, , value = 55
0, 4, 23, 116, 57, 1, 0, 6, , value = 56
0, 4, 20, 105, 66, 1, 0, 5, , value = 54
0, 3, 18, 93, 80, 2, 0, 5, , value = 56
-1, 3, 16, 83, 91, 2, 0, 5, , value = 56
-1, 2, 15, 73, 97, 2, 0, 5, , value = 62
-1, 2, 13, 65, 104, 3, 0, 5, , value = 62
-1, 2, 12, 57, 112, 5, 0, 5, , value = 65
0, 2, 11, 51, 114, 9, 0, 5, , value = 65
0, 2, 9, 45, 118, 15, 1, 5, , value = 61
-1, 1, 8, 40, 117, 22, 1, 5, , value = 62
-1, 1, 7, 35, 114, 32, 1, 6, , value = 64
-1, 1, 6, 31, 112, 45, 1, 6, , value = 69
-1, 1, 6, 28, 104, 60, 1, 6, , value = 72
-1, 1, 6, 25, 95, 72, 1, 5, , value = 72
-1, 1, 5, 22, 86, 80, 1, 6, , value = 72
-1, 1, 5, 20, 79, 92, 1, 6, , value = 74
-1, 1, 4, 18, 71, 104, 2, 6, , value = 75
-1, 0, 4, 17, 63, 108, 2, 6, , value = 73
-1, 0, 4, 15, 56, 116, 2, 7, , value = 75
-1, 0, 4, 14, 49, 122, 2, 6, , value = 82
-1, 0, 4, 13, 43, 126, 3, 7, , value = 82
-1, 1, 4, 12, 38, 129, 5, 6, , value = 83
-1, 1, 3, 12, 33, 135, 6, 7, , value = 77
-1, 1, 3, 11, 30, 144, 10, 7, , value = 82
-1, 1, 3, 11, 26, 143, 13, 7, , value = 82
-1, 1, 4, 10, 23, 139, 18, 7, , value = 81
-1, 1, 4, 9, 20, 134, 27, 7, , value = 82
-1, 1, 4, 9, 17, 132, 33, 8, , value = 84
-1, 1, 3, 8, 16, 125, 43, 8, , value = 86
-1, 1, 3, 8, 14, 118, 52, 8, , value = 87
0, 0, 3, 7, 12, 120, 53, 8, , value = 87
-1, 1, 3, 7, 10, 109, 73, 8, , value = 92
-1, 0, 3, 7, 9, 99, 81, 8, , value = 92
-1, 0, 3, 7, 8, 89, 94, 9, , value = 95
-1, 0, 3, 6, 7, 78, 104, 10, , value = 95
-1, 0, 3, 6, 6, 69, 111, 11, , value = 95
-1, 1, 2, 6, 5, 61, 118, 12, , value = 95
-1, 1, 2, 6, 5, 53, 123, 13, , value = 95
-1, 1, 2, 5, 4, 47, 130, 15, , value = 95
-1, 1, 2, 5, 4, 41, 138, 20, , value = 100
-1, 0, 2, 5, 3, 36, 139, 27, , value = 102
-1, 0, 2, 5, 3, 32, 136, 34, , value = 103
-1, 0, 2, 5, 2, 28, 130, 44, , value = 104
-2, 0, 2, 5, 2, 25, 123, 53, , value = 105
-1, 0, 2, 5, 1, 22, 114, 62, , value = 104
-1, 0, 2, 5, 1, 19, 104, 75, , value = 105
-1, 1, 2, 5, 1, 17, 96, 87, , value = 108
-1, 0, 2, 5, 1, 15, 88, 99, , value = 110
-1, 1, 2, 5, 1, 13, 80, 112, , value = 103
-1, 1, 2, 5, 1, 11, 71, 122, , value = 103
-1, 1, 2, 5, 3, 10, 63, 136, , value = 107
-2, 1, 2, 5, 3, 9, 56, 146, , value = 109
-2, 0, 2, 5, 2, 8, 49, 150, , value = 107
-1, 1, 2, 5, 2, 7, 43, 159, , value = 109
-2, 0, 2, 5, 2, 7, 38, 161, , value = 108
-2, 0, 2, 4, 1, 6, 33, 162, , value = 114
-2, 1, 2, 4, 1, 5, 29, 169, , value = 116
-2, 1, 2, 4, 1, 5, 25, 168, , value = 113
-2, 1, 2, 4, 1, 4, 22, 170, , value = 110
-2, 0, 2, 4, 1, 4, 19, 173, , value = 110
-2, 0, 3, 4, 0, 3, 17, 173, , value = 120
-2, 1, 3, 4, 0, 3, 15, 173, , value = 119
-2, 0, 2, 3, 0, 3, 13, 167, , value = 113
-2, 1, 2, 3, 0, 3, 11, 162, , value = 121
-2, 1, 2, 3, 0, 2, 10, 154, , value = 114
-2, 1, 2, 4, 0, 2, 9, 142, , value = 117
-3, 1, 2, 4, 0, 11, 7, 126, , value = 108
-2, 0, 2, 4, 0, 10, 6, 111, , value = 125
-2, 0, 2, 4, 0, 9, 6, 99, , value = 110
-2, 1, 2, 4, 0, 7, 5, 87, , value = 112
-2, 1, 2, 4, -1, 6, 4, 77, , value = 114
-2, 1, 2, 4, -1, 6, 4, 69, , value = 131
-1, 1, 2, 5, -1, 5, 4, 61, , value = 118
-1, 2, 2, 4, -2, 4, 4, 55, , value = 130
0, 2, 2, 5, -2, 4, 4, 49, , value = 121
1, 2, 2, 4, -2, 4, 3, 44, , value = 160
1, 2, 2, 3, -3, 3, 3, 39, , value = 140
1, 2, 2, 3, -3, 3, 3, 35, , value = 124
2, 3, 2, 0, -3, 2, 3, 32, , value = 112
1, 3, 2, 0, -3, 2, 3, 28, , value = 208
1, 3, 1, 1, -3, 2, 3, 26, , value = 192
2, 3, 1, 2, -4, 1, 3, 23, , value = 168
2, 3, 1, 2, -4, 1, 2, 21, , value = 152
2, 3, 2, 2, -4, 1, 2, 20, , value = 144
2, 4, 2, 2, -4, 2, 2, 18, , value = 128
